^C:\USERS\USER\SOURCE\REPOS\PROJECT6\PROJECT6.CPP
C:\USERS\USER\SOURCE\REPOS\PROJECT6\PROJECT6\X64\DEBUG\VC143.PDB
C:\USERS\USER\SOURCE\REPOS\PROJECT6\PROJECT6\X64\DEBUG\VC143.IDB
C:\USERS\USER\SOURCE\REPOS\PROJECT6\PROJECT6\X64\DEBUG\PROJECT6.OBJ
